%YAML 1.1
%TAG !u! tag:unity3d.com,2011:
--- !u!1045 &1
EditorBuildSettings:
  m_ObjectHideFlags: 0
  serializedVersion: 2
  m_Scenes:
  - enabled: 0
    path: 
    guid: 00000000000000000000000000000000
  - enabled: 1
    path: Assets/Scenes/StartMenu.unity
    guid: 6329caa47324cc047814969b086236ae
  - enabled: 1
    path: Assets/Scenes/SampleScene.unity
    guid: fb487ae80cfc51144bc2ea277cb0b8c6
  m_configObjects: {}
